{
    "antifeatures": {
        "Ads": "此應用程式內有廣告",
        "DisabledAlgorithm": "此應用的安全簽名不強",
        "KnownVuln": "此應用程式包含一個已知的安全漏洞",
        "NSFW": "此應用可能包含裸露、暴力、色情或冒犯等不適宜公眾場合的內容",
        "NoSourceSince": "原始碼不再能取得，無法取得新版本",
        "NonFreeAdd": "這個應用程式推廣非免費的外掛程式",
        "NonFreeAssets": "這個應用程式包含非自由資產",
        "NonFreeDep": "此應用程式依賴其他非自由應用程式",
        "NonFreeNet": "此應用程式推廣或完全依賴不可轉換或非自由的網路服務",
        "Tracking": "此應用程式跟蹤並回報您的活動",
        "UpstreamNonFree": "上游原始碼並非完全自由"
    },
    "app_categories": {
        "Connectivity": "連線",
        "Development": "開發",
        "Games": "遊戲",
        "Graphics": "圖形",
        "Internet": "網路",
        "Money": "理財",
        "Multimedia": "多媒體",
        "Navigation": "導航",
        "Phone & SMS": "通話與簡訊",
        "Reading": "閱讀",
        "Science & Education": "科學與教育",
        "Security": "安全性",
        "Sports & Health": "運動與健康",
        "System": "系統",
        "Theming": "主題",
        "Time": "時間",
        "Writing": "書寫",
        "show_all_packages": "顯示所有 %d 個應用程式"
    },
    "index": {
        "download_fdroid": "下載 F-Droid",
        "gpg_signature": "PGP 簽章",
        "introduction": "F-Droid 是一個可在 Android 平台上安裝的自由與開源 FOSS（Free and Open Source Software）的應用程式目錄，可供您輕鬆瀏覽、安裝並持續追蹤裝置上應用程式的更新。",
        "pgp_verification_instructions": "如何驗證下載",
        "screenshot": "F-Droid Android 應用程式螢幕快照",
        "title": "F-Droid 是什麼？"
    },
    "mirrors": {
        "cn": "中國大陸",
        "de": "德國",
        "dk": "丹麥",
        "indiana": "美國，印第安納州",
        "se": "瑞典",
        "sg": "新加坡",
        "tw": "台灣",
        "ua": "烏克蘭"
    },
    "navigation": {
        "about": "關於",
        "apps": "軟體",
        "contribute": "貢獻",
        "documentation": "文件",
        "edit_on_gitlab": "在GitLab上編輯",
        "forum": "論壇",
        "issues": "問題",
        "news": "新聞",
        "statuspage": "狀態",
        "translate_on_weblate": "在Weblate上翻譯"
    },
    "news": {
        "date_format": "%Y 年 %m 月 %d 日",
        "newer_posts": "← 新文章",
        "older_posts": "舊文章 →",
        "posted_on": "發佈於 {{ post_date }}",
        "posted_on_by": "發佈於 {{ post_date }} 由"
    },
    "package": {
        "added_on": "於{{ package_added_date }}新增",
        "anti_features": "反特徵",
        "anti_features_warning": "此應用程式可能有您不喜歡的功能。",
        "author": "作者",
        "build_log": "構建日誌",
        "build_metadata": "構建中介資料",
        "changelog": "更新日誌",
        "donate": "捐助",
        "download": "下載 {{ file_extension }}",
        "file_size_bytes": "位元組",
        "file_size_format": "%{number} %{unit}",
        "file_size_gibibytes": "GiB",
        "file_size_kibibytes": "KiB",
        "file_size_mebibytes": "MiB",
        "file_size_tebibytes": "TiB",
        "flattr": "Flattr",
        "gpg_signature": "PGP 簽章",
        "issue_tracker": "問題追蹤系統",
        "liberapay": "Liberapay",
        "license": "授權條款",
        "minimum_android_version": "此版本需要 Android {{ android_version }} 或更高的版本。",
        "new_in_version": "新版本 {{ latest_version }}",
        "opencollective": "Open Collective",
        "package_icon_alt": "圖標",
        "package_screenshot_alt": "軟體截圖",
        "packages": "套件",
        "permissions": "權限",
        "signed_by_developer": "此套件包由原始開發者構建和簽署，並保證與<a href=\"{{ source_code_url }}\">此來源 Tarball</a> 相對應。",
        "signed_by_fdroid": "此套件包由 F-Droid 構建，並保證對應於<a href=\"{{ source_code_url }}\">此原始碼 tarball</a>。",
        "source_code": "原始碼",
        "suggest_downloading_via_fdroid": "雖然在下方可選擇下載 APK 檔案，但要留意這樣的安裝方式將不會收到更新通知，是一種較不安全的下載方法。建議您先安裝 F-Droid 用戶端使用。",
        "suggested": "建議",
        "translation": "翻譯",
        "version_info": "<b>版本 {{ package_version }}</b> ({{ package_version_code }})",
        "versions": "版本",
        "website": "網站"
    },
    "permissions": {
        "permdesc_acceptHandovers": "允許該應用繼續在另一個應用中發起的通話。",
        "permdesc_accessBackgroundLocation": "這個應用程式隨時都能取得位置資訊 (包括未使用應用程式時)。",
        "permdesc_accessCoarseLocation": "只有在你使用時，這個應用程式才能透過定位服務取得你的概略位置。你必須在裝置上開啟定位服務，這個應用程式才能取得位置資訊。",
        "permdesc_accessDrmCertificates": "允許應用程式設定和使用 DRM 簽證（一般應用程式永遠不需要）。",
        "permdesc_accessFineLocation": "只有在你使用時，這個應用程式才能透過定位服務取得你的精確位置。你必須在裝置上開啟定位服務，這個應用程式才能取得位置資訊。這麼做可能會增加電池用量。",
        "permdesc_accessImsCallService": "允許應用程式自動且不經過您介入就使用 IMS 服務撥打電話。",
        "permdesc_accessLocationExtraCommands": "允許應用程式存取額外位置資訊提供者指令。這項設定可能會造成應用程式干擾 GPS 或其他位置資訊來源的運作。",
        "permdesc_accessNetworkConditions": "允許應用程式監聽網絡狀況觀察資訊。一般的應用程式絕不需要此權限。",
        "permdesc_accessNetworkState": "允許應用程式查看網路連線相關資訊，像是有哪些網路，以及有沒有連上。",
        "permdesc_accessNotifications": "允許應用程式擷取、檢查及清除通知（包括由其他應用程式發佈的通知）。",
        "permdesc_accessWifiState": "允許應用程式查看 Wi-Fi 網路相關資訊，例如是否已啟用 Wi-Fi，以及所連上 Wi-Fi 裝置的名稱。",
        "permdesc_accessWimaxState": "允許應用程式判斷是否已啟用 WiMAX，以及判讀任何已連上 WiMAX 網路的相關資訊。",
        "permdesc_access_notification_policy": "允許應用程式讀取及變更「零打擾」設定。",
        "permdesc_activityRecognition": "此應用程式可以識別你的體能活動。",
        "permdesc_addVoicemail": "允許應用程式將訊息新增至你的語音信箱收件匣。",
        "permdesc_answerPhoneCalls": "允許應用程式接聽來電。",
        "permdesc_audioWrite": "允許應用程式修改你的音樂收藏。",
        "permdesc_backgroundCamera": "這個應用程式隨時可以使用相機拍照及錄影。",
        "permdesc_bindCarrierMessagingService": "允許應用程式與電信業者簡訊服務的頂層介面繫結 (一般應用程式並不需要)。",
        "permdesc_bindCarrierServices": "允許應用程式繫結至電信業者服務 (一般應用程式並不需要)。",
        "permdesc_bindCellBroadcastService": "允許此應用程式連結至區域廣播模組，以便轉送收到的區域廣播訊息。某些地點會發出區域廣播警示，警告你有緊急狀況發生。惡意應用程式可能會在裝置收到緊急區域廣播時干擾裝置的效能或運作。",
        "permdesc_bindConditionProviderService": "允許應用程式繫結至條件提供者服務的頂層介面 。一般應用程式並不需要此權限。",
        "permdesc_bindDreamService": "允許應用程式繫結至 Dream 服務的頂層介面。一般應用程式並不需要此權限。",
        "permdesc_bindNotificationListenerService": "允許應用程式繫結至通知接聽器服務的頂層介面。一般應用程式並不需要此權限。",
        "permdesc_bind_connection_service": "允許應用程式與電話語音服務互動以撥打和接收電話。",
        "permdesc_bind_incall_service": "允許應用程式控制使用者看到通話螢幕的時間和方式。",
        "permdesc_bluetooth": "允許應用程式查看手機的藍牙設定，以及建立和接受與其他配對裝置的連線。",
        "permdesc_bluetoothAdmin": "允許應用程式設定本機藍牙手機，以及搜尋遠端裝置並配對連線。",
        "permdesc_bluetooth_advertise": "允許應用程式向附近的藍牙裝置廣播",
        "permdesc_bluetooth_connect": "允許應用程式與已配對的藍牙裝置連線",
        "permdesc_bluetooth_scan": "允許應用程式探索鄰近藍牙裝置並進行配對",
        "permdesc_bodySensors": "允許應用程式存取感測器所收集的資料 (這類感測器可監測你的體能狀態，例如你的心跳速率)。",
        "permdesc_bodySensors_background": "允許應用程式在背景執行時存取人體感應器資料，例如心跳速率、體溫和血氧比例。",
        "permdesc_broadcastSticky": "允許應用程式傳送記憶廣播，這類廣播在廣播動作結束後仍繼續存在。請注意，過度使用此功能可能導致手機使用過多的記憶體，導致手機的執行速度變慢或不穩定。",
        "permdesc_callCompanionApp": "允許應用程式查看及控管在裝置上撥出的電話，包括撥打的電話號碼和通話狀態等資訊。",
        "permdesc_callPhone": "允許應用程式自行撥打電話，但可能產生非預期的費用或撥打非預期的電話。注意：這項權限不允許應用程式撥打緊急電話。惡意應用程式可能會利用此功能擅自撥打電話，增加你不必要的額外支出。",
        "permdesc_camera": "這個應用程式在使用期間可以使用相機拍照及錄影。",
        "permdesc_cameraOpenCloseListener": "當任何相機裝置在開啟 (由應用程式) 或關閉時，這個應用程式就能接收回呼。",
        "permdesc_changeNetworkState": "允許應用程式變更網路連線狀態。",
        "permdesc_changeTetherState": "允許應用程式變更共用網路的連線狀態。",
        "permdesc_changeWifiMulticastState": "允許應用程式接收透過多點傳播位址傳送給 Wi-Fi 網路上所有裝置 (而不只是傳送給你的手機) 的封包。這項設定會比非多點傳播模式耗用更多電力。",
        "permdesc_changeWifiState": "允許應用程式與 Wi-Fi 存取點連線或中斷連線，並可變更 Wi-Fi 網路的裝置設定。",
        "permdesc_changeWimaxState": "允許應用程式建立或中斷手機與 WiMAX 網路的連線。",
        "permdesc_companionProfileWatch": "允許隨附應用程式管理智慧手錶。",
        "permdesc_connection_manager": "允許應用程式管理電信連線。",
        "permdesc_control_incall_experience": "允許應用程式向使用者提供通話體驗。",
        "permdesc_createNetworkSockets": "允許應用程式建立網路通訊端及使用自訂網路通訊協定。瀏覽器和其他應用程式會提供將資料傳輸到網際網路的方法，因此不需要這項權限也能將資料傳輸到網際網路。",
        "permdesc_deliverCompanionMessages": "允許隨附應用程式將自身產生的訊息傳送給其他裝置。",
        "permdesc_detectScreenCapture": "如果在使用應用程式過程中拍攝了螢幕截圖，這個應用程式將會收到通知。",
        "permdesc_disableKeyguard": "允許應用程式停用按鍵鎖定以及其他相關的密碼安全性功能。例如：手機收到來電時停用按鍵鎖定，通話結束後重新啟用按鍵鎖定。",
        "permdesc_enableCarMode": "允許應用程式啟用車用模式。",
        "permdesc_exemptFromAudioRecordRestrictions": "移除應用程式的錄音限制。",
        "permdesc_expandStatusBar": "允許應用程式展開或收合狀態列。",
        "permdesc_foregroundService": "允許應用程式使用前景服務。",
        "permdesc_foregroundServiceCamera": "允許應用程式搭配「camera」類型使用前景服務",
        "permdesc_foregroundServiceConnectedDevice": "允許應用程式搭配「connectedDevice」類型使用前景服務",
        "permdesc_foregroundServiceDataSync": "允許應用程式搭配「dataSync」類型使用前景服務",
        "permdesc_foregroundServiceFileManagement": "允許應用程式搭配「fileManagement」類型使用前景服務",
        "permdesc_foregroundServiceHealth": "允許應用程式搭配「health」類型使用前景服務",
        "permdesc_foregroundServiceLocation": "允許應用程式搭配「location」類型使用前景服務",
        "permdesc_foregroundServiceMediaPlayback": "允許應用程式搭配「mediaPlayback」類型使用前景服務",
        "permdesc_foregroundServiceMediaProjection": "允許應用程式搭配「mediaProjection」類型使用前景服務",
        "permdesc_foregroundServiceMicrophone": "允許應用程式搭配「microphone」類型使用前景服務",
        "permdesc_foregroundServicePhoneCall": "允許應用程式搭配「phoneCall」類型使用前景服務",
        "permdesc_foregroundServiceRemoteMessaging": "允許應用程式搭配「remoteMessaging」類型使用前景服務",
        "permdesc_foregroundServiceSpecialUse": "允許應用程式搭配「specialUse」類型使用前景服務",
        "permdesc_foregroundServiceSystemExempted": "允許應用程式搭配「systemExempted」類型使用前景服務",
        "permdesc_fullScreenIntent": "允許應用程式在已鎖定的裝置上以全螢幕活動的形式顯示通知",
        "permdesc_getAccounts": "允許應用程式取得手機上所記憶的帳戶清單，其中可能包括你安裝的應用程式所建立的任何帳戶。",
        "permdesc_getPackageSize": "允許應用程式擷取本身的程式碼、資料及快取大小",
        "permdesc_getTasks": "允許應用程式擷取最近執行工作的資訊。這項設定可讓應用程式找出裝置所用程式的相關資訊。",
        "permdesc_handoverStatus": "允許應用程式接收 Android Beam 目前傳輸的資訊",
        "permdesc_hideOverlayWindows": "該應用程式可以要求系統隱藏其他應用程式顯示在上方的疊加內容。",
        "permdesc_highSamplingRateSensors": "允許應用程式以高於 200 Hz 的頻率對感應器資料進行取樣",
        "permdesc_imagesWrite": "允許應用程式修改你的相片收藏。",
        "permdesc_install_shortcut": "允許應用程式自動新增主螢幕捷徑。",
        "permdesc_invokeCarrierSetup": "允許應用程式叫用電信業者提供的設定應用程式 (一般應用程式並不需要)。",
        "permdesc_killBackgroundProcesses": "允許應用程式終止其他應用程式的背景處理程序。這項設定可能會導致其他應用程式停止執行。",
        "permdesc_manageFace": "允許應用程式呼叫方法來新增及移除可用的臉孔範本。",
        "permdesc_manageFingerprint": "允許應用程式呼叫方法來新增及移除可用的指紋範本。",
        "permdesc_manageNetworkPolicy": "允許應用程式管理網路政策並定義應用程式專用規則。",
        "permdesc_manageOngoingCalls": "允許應用程式查看裝置上進行中通話的詳細資料，並控制這些通話。",
        "permdesc_manageOwnCalls": "允許應用程式透過系統接通來電，以改善通話品質。",
        "permdesc_manageProfileAndDeviceOwners": "允許應用程式設定個人資料擁有者和裝置擁有者。",
        "permdesc_mediaLocation": "允許應用程式讀取你的媒體收藏的位置資訊。",
        "permdesc_modifyAudioSettings": "允許應用程式修改全域音訊設定，例如音量和用來輸出的喇叭。",
        "permdesc_modifyNetworkAccounting": "允許應用程式修改應用程式網路使用量的計算方式 (不建議一般應用程式使用)。",
        "permdesc_nearby_wifi_devices": "允許應用程式顯示鄰近的 Wi-Fi 裝置的資料、與其連線並判斷相對位置",
        "permdesc_nfc": "允許應用程式與近距離無線通訊 (NFC) 電子感應標籤、卡片及感應器進行通訊。",
        "permdesc_observeCompanionDevicePresence": "允許隨附應用程式在配對裝置靠近或遠離時偵測裝置目前的狀態。",
        "permdesc_persistentActivity": "允許應用程式讓部分內容佔用記憶體，持續執行。這項設定可能會限制其他應用程式可用的記憶體，並拖慢手機運作速度。",
        "permdesc_postNotification": "允許應用程式顯示通知",
        "permdesc_preferredPaymentInfo": "允許應用程式取得首選 NFC 付費服務資訊，例如已註冊的輔助工具和路線目的地。",
        "permdesc_processOutgoingCalls": "允許應用程式在撥打電話期間查看撥出的電話號碼，並可選擇改撥其他號碼或中斷通話。",
        "permdesc_queryAllPackages": "允許應用程式查看所有已安裝的套件。",
        "permdesc_readBasicPhoneState": "允許應用程式存取裝置的基本電話通訊功能。",
        "permdesc_readCalendar": "這個應用程式可讀取所有儲存在手機上的日曆活動資訊，以及共用或儲存日曆資料。",
        "permdesc_readCallLog": "這個應用程式可讀取通話記錄。",
        "permdesc_readCellBroadcasts": "允許應用程式讀取你裝置收到的區域廣播訊息。某些地點會發出區域廣播警示，警告你有緊急狀況發生。請注意，惡意應用程式可能會在裝置收到緊急區域廣播時，干擾裝置的效能或運作。",
        "permdesc_readContacts": "允許應用程式讀取手機上儲存的聯絡人資料。如果你已在手機上的帳戶建立聯絡人，應用程式也將可以存取這些帳戶，當中可能包括你安裝的應用程式所建立的帳戶。這項權限可讓應用程式儲存你的聯絡人資料，惡意應用程式也可能在你不知情的情況下洩露你的聯絡人資料。",
        "permdesc_readHistoryBookmarks": "允許應用程式讀取瀏覽器造訪過的所有網址記錄，以及瀏覽器的所有書籤。注意：這項權限不適用於第三方瀏覽器或其他具備網頁瀏覽功能的應用程式。",
        "permdesc_readInstallSessions": "允許應用程式讀取安裝工作階段。應用程式將可查看目前的套件安裝詳細資料。",
        "permdesc_readMediaAudio": "允許應用程式讀取共用儲存空間中的音訊檔案。",
        "permdesc_readMediaImages": "允許應用程式讀取共用儲存空間中的圖片檔案。",
        "permdesc_readMediaVideo": "允許應用程式讀取共用儲存空間中的影片檔案。",
        "permdesc_readNetworkUsageHistory": "允許應用程式讀取特定網路和應用程式的網路使用記錄。",
        "permdesc_readPhoneNumbers": "允許應用程式存取裝置上的電話號碼資料。",
        "permdesc_readPhoneState": "允許應用程式使用裝置的電話功能。這項權限可讓應用程式判讀手機號碼和裝置 ID、是否正在通話中，以及所撥打的對方號碼。",
        "permdesc_readSms": "這個應用程式可讀取所有儲存在手機上的簡訊。",
        "permdesc_readSyncSettings": "允許應用程式讀取帳戶的同步處理設定，例如判斷「使用者」應用程式是否和某個帳戶進行同步處理。",
        "permdesc_readSyncStats": "允許應用程式讀取帳戶的同步處理統計資料，包括同步處理活動記錄，以及同步處理的資料量。",
        "permdesc_readVisualUserSelect": "允許應用程式讀取你在共用儲存空間中選取的圖片和影片檔案。",
        "permdesc_receiveBootCompleted": "允許應用程式在系統完成開機程序後立即自行啟動。這會增加手機的開機時間，而且會因為系統一直執行該應用程式導致手機的整體運作速度變慢。",
        "permdesc_receiveMms": "允許應用程式接收和處理多媒體訊息。這項設定可讓應用程式監控傳送至你裝置的訊息，或在你閱讀訊息前擅自刪除訊息。",
        "permdesc_receiveSms": "允許應用程式接收和處理簡訊。這項設定可讓應用程式監控傳送至你裝置的訊息，或在你閱讀訊息前擅自刪除訊息。",
        "permdesc_receiveWapPush": "允許應用程式接收和處理 WAP 訊息。這項權限也能讓應用程式監控訊息，或在你閱讀訊息前擅自刪除訊息。",
        "permdesc_recordAudio": "這個應用程式在使用期間可以使用麥克風錄音。",
        "permdesc_recordBackgroundAudio": "這個應用程式隨時可以使用麥克風錄音。",
        "permdesc_register_call_provider": "允許應用程式註冊新的電信連線。",
        "permdesc_register_sim_subscription": "允許應用程式註冊新的電信 SIM 卡連線。",
        "permdesc_removeDrmCertificates": "允許應用程式移除 DRM 憑證 (一般應用程式並不需要)。",
        "permdesc_reorderTasks": "允許應用程式將工作移至前景或背景。應用程式可以自行處理，不待你操作。",
        "permdesc_requestDeletePackages": "允許應用程式要求刪除套件。",
        "permdesc_requestIgnoreBatteryOptimizations": "允許應用程式要求權限，以便忽略針對該應用程式的電池效能最佳化設定。",
        "permdesc_requestInstallPackages": "允許應用程式要求安裝套件。",
        "permdesc_requestPasswordComplexity": "允許應用程式記住螢幕鎖定的複雜度 (高、中、低或無)，即螢幕鎖定的可能長度範圍和類型。這樣一來，應用程式還能建議使用者將螢幕鎖定更新為特定複雜度，但使用者可選擇忽略建議並離開應用程式。請注意，系統不會以純文字格式儲存螢幕鎖定選項的內容，因此應用程式不會知道確切密碼。",
        "permdesc_route_media_output": "允許應用程式將媒體輸出轉送至其他外部裝置。",
        "permdesc_runInBackground": "這個應用程式可在背景執行，這樣可能導致耗電速度加快。",
        "permdesc_schedule_exact_alarm": "這個應用程式可以排定在未來的特定時間執行工作，也就是說，應用程式可以在你未主動使用裝置時執行。",
        "permdesc_sdcardRead": "允許這個應用程式讀取共用儲存空間中的內容。",
        "permdesc_sdcardWrite": "允許這個應用程式寫入共用儲存空間中的內容。",
        "permdesc_sendSms": "允許應用程式傳送簡訊，但可能產生非預期的費用。惡意應用程式可能利用此功能擅自傳送簡訊，增加你不必要的額外支出。",
        "permdesc_setAlarm": "允許應用程式在安裝的鬧鐘應用程式中設定鬧鐘，某些鬧鐘應用程式可能無法執行這項功能。",
        "permdesc_setInputCalibration": "允許應用程式修改觸控螢幕的校正參數 (一般應用程式並不需要)。",
        "permdesc_setTimeZone": "允許應用程式變更手機的時區。",
        "permdesc_setWallpaper": "允許應用程式設定系統桌布。",
        "permdesc_setWallpaperHints": "允許應用程式設定系統桌布大小的提示。",
        "permdesc_sim_communication": "允許應用程式傳送指令到 SIM 卡。這麼做非常危險。",
        "permdesc_startForegroundServicesFromBackground": "允許隨附應用程式從背景啟動前景服務。",
        "permdesc_startReviewPermissionDecisions": "允許應用程式啟動檢視權限決定的畫面 (一般應用程式並不需要)。",
        "permdesc_startViewAppFeatures": "允許具有這項權限的應用程式開始查看其他應用程式的功能資訊。",
        "permdesc_startViewPermissionUsage": "允許應用程式開始使用其他應用程式 (一般應用程式並不需要)。",
        "permdesc_statusBar": "允許應用程式停用狀態列，並可新增或移除系統圖示。",
        "permdesc_statusBarService": "允許應用程式以狀態列顯示。",
        "permdesc_subscribedFeedsRead": "允許應用程式取得目前已同步處理的資訊提供詳細資料。",
        "permdesc_systemAlertWindow": "這個應用程式可顯示在其他應用程式上方或畫面中的其他位置。你可能會無法照常使用應用程式，且其他應用程式的顯示方式可能會受到影響。",
        "permdesc_systemCamera": "這個具有特殊權限的系統應用程式隨時可以使用系統攝影機拍照及錄影。此外，你也必須將 android.permission.CAMERA 權限授予這個應用程式",
        "permdesc_transmitIr": "允許應用程式使用手機的紅外線傳送器。",
        "permdesc_turnScreenOn": "允許應用程式開啟螢幕。",
        "permdesc_uninstall_shortcut": "允許應用程式自動移除主螢幕捷徑。",
        "permdesc_updatePackagesWithoutUserAction": "允許容器更新先前安裝的應用程式，使用者不必操作",
        "permdesc_useBiometric": "允許應用程式使用生物特徵硬體進行驗證",
        "permdesc_useDataInBackground": "這個應用程式可在背景使用行動數據連線，這樣可能導致數據用量增加。",
        "permdesc_useFaceAuthentication": "允許應用程式使用人臉解鎖硬體進行驗證",
        "permdesc_useFingerprint": "允許應用程式使用指紋硬體進行驗證",
        "permdesc_use_exact_alarm": "這個應用程式可以排定鬧鐘和提醒等動作，在未來的特定時間向你傳送通知。",
        "permdesc_use_sip": "允許應用程式撥打及接聽 SIP 通話。",
        "permdesc_uwb_ranging": "允許應用程式判斷附近超寬頻裝置間的相對位置",
        "permdesc_vibrate": "允許應用程式控制震動。",
        "permdesc_vibrator_state": "允許應用程式存取震動功能狀態。",
        "permdesc_videoWrite": "允許應用程式修改你的影片收藏。",
        "permdesc_wakeLock": "允許應用程式防止手機進入休眠狀態。",
        "permdesc_writeCalendar": "這個應用程式可在手機上新增、移除或變更日曆活動。提醒你，這個應用程式可能會以日曆擁有者的名義傳送訊息，或是在不通知日曆擁有者的情況下變更活動內容。",
        "permdesc_writeCallLog": "允許應用程式修改手機的通話記錄，包括來電和已撥電話相關資料。請注意，惡意應用程式可能濫用此功能刪除或修改你的通話記錄。",
        "permdesc_writeContacts": "允許應用程式修改手機上儲存的聯絡人資料。這項權限可讓應用程式刪除聯絡人資料。",
        "permdesc_writeGeolocationPermissions": "允許應用程式修改瀏覽器的地理位置權限。請注意，惡意應用程式可能利用此功能允許將你的位置資訊任意傳送給某些網站。",
        "permdesc_writeHistoryBookmarks": "允許應用程式修改手機上儲存的瀏覽記錄或書籤。這項設定會讓應用程式具有清除或修改瀏覽資料的權限。注意：這項權限不適用於第三方瀏覽器或其他具備網頁瀏覽功能的應用程式。",
        "permdesc_writeSettings": "允許應用程式修改系統設定資料。請注意，惡意應用程式可能利用此功能破壞系統設定。",
        "permdesc_writeSyncSettings": "允許應用程式修改帳戶的同步處理設定，例如讓「使用者」應用程式與某個帳戶進行同步處理。",
        "permgroupbackgroundrequest_location": "允许应用请求后台位置。",
        "permgroupbackgroundrequestdetail_location": "目前應用程式只有在你使用時，才能存取位置資訊",
        "permgroupdesc_activityRecognition": "存取你的體能活動記錄",
        "permgroupdesc_calendar": "存取你的日曆",
        "permgroupdesc_calllog": "讀取及寫入通話記錄",
        "permgroupdesc_camera": "拍照及錄製影片",
        "permgroupdesc_contacts": "存取你的聯絡人",
        "permgroupdesc_location": "存取這台裝置的位置資訊",
        "permgroupdesc_microphone": "錄音",
        "permgroupdesc_nearby_devices": "探索附近的裝置並進行連線",
        "permgroupdesc_notifications": "顯示通知",
        "permgroupdesc_phone": "撥打電話及管理通話",
        "permgroupdesc_readMediaAural": "存取裝置上的音樂和音訊",
        "permgroupdesc_readMediaVisual": "存取裝置上的相片和影片",
        "permgroupdesc_sensors": "存取與你生命徵象相關的感應器資料",
        "permgroupdesc_sms": "傳送及查看簡訊",
        "permgroupdesc_storage": "存取裝置中的相片、媒體和檔案",
        "permgrouplab_activityRecognition": "體能活動記錄",
        "permgrouplab_calendar": "日曆",
        "permgrouplab_calllog": "通話記錄",
        "permgrouplab_camera": "相機",
        "permgrouplab_contacts": "聯絡人",
        "permgrouplab_location": "位置",
        "permgrouplab_microphone": "麥克風",
        "permgrouplab_nearby_devices": "鄰近裝置",
        "permgrouplab_notifications": "通知",
        "permgrouplab_phone": "電話",
        "permgrouplab_readMediaAural": "音樂和音訊",
        "permgrouplab_readMediaVisual": "相片和影片",
        "permgrouplab_sensors": "人體感測器",
        "permgrouplab_sms": "簡訊",
        "permgrouplab_storage": "檔案",
        "permgrouprequest_activityRecognition": "允許應用程式跟蹤你的活動。",
        "permgrouprequest_calendar": "要允許「",
        "permgrouprequest_calllog": "要允許「",
        "permgrouprequest_camera": "要允許「",
        "permgrouprequest_contacts": "要允許「",
        "permgrouprequest_location": "要允許「",
        "permgrouprequest_microphone": "要允許「",
        "permgrouprequest_phone": "要允許「",
        "permgrouprequest_sensors": "要允許「",
        "permgrouprequest_sms": "要允許「",
        "permgrouprequest_storage": "要允許「",
        "permgrouprequestdetail_location": "該應用程式只有在你使用時，才能存取位置資訊",
        "permlab_acceptHandover": "繼續進行來自其他應用程式的通話",
        "permlab_accessBackgroundLocation": "在背景存取位置資訊",
        "permlab_accessCoarseLocation": "僅可在前景中取得概略位置",
        "permlab_accessDrmCertificates": "存取 DRM 憑證",
        "permlab_accessFineLocation": "僅可在前景中取得精確位置",
        "permlab_accessImsCallService": "存取 IMS 撥號服務",
        "permlab_accessLocationExtraCommands": "接收額外的位置提供者指令",
        "permlab_accessNetworkConditions": "監聽網路狀況觀察資訊",
        "permlab_accessNetworkState": "查看網路連線",
        "permlab_accessNotifications": "存取通知",
        "permlab_accessWifiState": "查看 Wi-Fi 連線",
        "permlab_accessWimaxState": "建立或中斷與 WiMAX 網路的連線",
        "permlab_access_notification_policy": "存取「零打擾」模式",
        "permlab_activityRecognition": "辨識體能活動",
        "permlab_addVoicemail": "新增語音留言",
        "permlab_answerPhoneCalls": "接聽電話",
        "permlab_audioWrite": "修改你的音樂收藏",
        "permlab_backgroundCamera": "在背景拍照及錄影",
        "permlab_bindCarrierMessagingService": "與電信業者簡訊服務繫結",
        "permlab_bindCarrierServices": "與電信業者服務繫結",
        "permlab_bindCellBroadcastService": "轉送區域廣播訊息",
        "permlab_bindConditionProviderService": "繫結至條件提供者服務",
        "permlab_bindDreamService": "繫結至 Dream 服務",
        "permlab_bindNotificationListenerService": "繫結至通知接聽器服務",
        "permlab_bind_connection_service": "與電話語音服務互動",
        "permlab_bind_incall_service": "與通話螢幕互動",
        "permlab_bluetooth": "與藍牙裝置配對",
        "permlab_bluetoothAdmin": "存取藍牙設定",
        "permlab_bluetooth_advertise": "向附近的藍牙裝置廣播",
        "permlab_bluetooth_connect": "與已配對的藍牙裝置連線",
        "permlab_bluetooth_scan": "探索鄰近藍牙裝置並進行配對",
        "permlab_bodySensors": "存取人體感應器 (例如心跳速率監測器)",
        "permlab_bodySensors_background": "在背景執行時可存取人體感應器資料，例如心跳速率",
        "permlab_broadcastSticky": "傳送附屬廣播",
        "permlab_callCompanionApp": "查看及控管透過系統撥打的電話。",
        "permlab_callPhone": "直接撥打電話號碼",
        "permlab_camera": "拍攝相片和影片",
        "permlab_cameraOpenCloseListener": "允許應用程式或服務接收相機裝置開啟或關閉的相關回呼。",
        "permlab_changeNetworkState": "變更網路連線",
        "permlab_changeTetherState": "變更數據連線",
        "permlab_changeWifiMulticastState": "允許接收 Wi-Fi 多點傳播封包",
        "permlab_changeWifiState": "建立及中斷 Wi-Fi 連線",
        "permlab_changeWimaxState": "變更 WiMAX 狀態",
        "permlab_companionProfileWatch": "用於管理智慧手錶的配對智慧手錶設定檔權限",
        "permlab_connection_manager": "管理電信連線",
        "permlab_control_incall_experience": "為使用者提供通話體驗",
        "permlab_createNetworkSockets": "擁有完整的網路存取權",
        "permlab_deliverCompanionMessages": "傳送隨附應用程式自身產生的訊息",
        "permlab_detectScreenCapture": "偵測應用程式視窗是否擷取螢幕畫面",
        "permlab_disableKeyguard": "停用螢幕鎖定",
        "permlab_enableCarMode": "啟用行車模式",
        "permlab_exemptFromAudioRecordRestrictions": "移除錄音限制",
        "permlab_expandStatusBar": "展開/收攏狀態列",
        "permlab_foregroundService": "執行前景服務",
        "permlab_foregroundServiceCamera": "搭配「camera」類型執行前景服務",
        "permlab_foregroundServiceConnectedDevice": "搭配「connectedDevice」類型執行前景服務",
        "permlab_foregroundServiceDataSync": "搭配「dataSync」類型執行前景服務",
        "permlab_foregroundServiceFileManagement": "搭配「fileManagement」類型執行前景服務",
        "permlab_foregroundServiceHealth": "搭配「health」類型執行前景服務",
        "permlab_foregroundServiceLocation": "搭配「location」類型執行前景服務",
        "permlab_foregroundServiceMediaPlayback": "搭配「mediaPlayback」類型執行前景服務",
        "permlab_foregroundServiceMediaProjection": "搭配「mediaProjection」類型執行前景服務",
        "permlab_foregroundServiceMicrophone": "搭配「microphone」類型執行前景服務",
        "permlab_foregroundServicePhoneCall": "搭配「phoneCall」類型執行前景服務",
        "permlab_foregroundServiceRemoteMessaging": "搭配「remoteMessaging」類型執行前景服務",
        "permlab_foregroundServiceSpecialUse": "搭配「specialUse」類型執行前景服務",
        "permlab_foregroundServiceSystemExempted": "搭配「systemExempted」類型執行前景服務",
        "permlab_fullScreenIntent": "在已鎖定的裝置上以全螢幕活動的形式顯示通知",
        "permlab_getAccounts": "尋找裝置上的帳戶",
        "permlab_getPackageSize": "測量應用程式儲存空間",
        "permlab_getTasks": "擷取執行中的應用程式",
        "permlab_handoverStatus": "接收 Android Beam 的傳輸狀態",
        "permlab_hideOverlayWindows": "隱藏其他應用程式的疊加內容",
        "permlab_highSamplingRateSensors": "以高取樣率存取感應器資料",
        "permlab_imagesWrite": "修改你的相片收藏",
        "permlab_install_shortcut": "安裝捷徑",
        "permlab_invokeCarrierSetup": "叫用電信業者提供的設定應用程式",
        "permlab_killBackgroundProcesses": "關閉其他應用程式",
        "permlab_manageFace": "管理人臉解鎖硬體",
        "permlab_manageFingerprint": "管理指紋硬體",
        "permlab_manageNetworkPolicy": "管理網路政策",
        "permlab_manageOngoingCalls": "管理進行中的通話",
        "permlab_manageOwnCalls": "透過系統接通來電",
        "permlab_manageProfileAndDeviceOwners": "管理個人資料和裝置擁有者",
        "permlab_mediaLocation": "讀取你的媒體收藏的位置資訊",
        "permlab_modifyAudioSettings": "變更音訊設定",
        "permlab_modifyNetworkAccounting": "修改網路使用量計算方式",
        "permlab_nearby_wifi_devices": "與鄰近的 Wi-Fi 裝置互動",
        "permlab_nfc": "控制近距離無線通訊",
        "permlab_observeCompanionDevicePresence": "偵測裝置目前的狀態",
        "permlab_persistentActivity": "一律執行應用程式",
        "permlab_postNotification": "顯示通知",
        "permlab_preferredPaymentInfo": "首選 NFC 付費服務資訊",
        "permlab_processOutgoingCalls": "重設撥號路徑",
        "permlab_queryAllPackages": "查詢所有套件",
        "permlab_readBasicPhoneState": "讀取基本電話通訊狀態和識別資訊",
        "permlab_readCalendar": "讀取日曆活動和詳細資訊",
        "permlab_readCallLog": "讀取通話記錄",
        "permlab_readCellBroadcasts": "讀取區域廣播訊息",
        "permlab_readContacts": "讀取你的聯絡人",
        "permlab_readHistoryBookmarks": "讀取你的網路書籤和記錄",
        "permlab_readInstallSessions": "讀取安裝工作階段",
        "permlab_readMediaAudio": "讀取共用儲存空間中的音訊檔案",
        "permlab_readMediaImages": "讀取共用儲存空間中的圖片檔案",
        "permlab_readMediaVideo": "讀取共用儲存空間中的影片檔案",
        "permlab_readNetworkUsageHistory": "讀取網路用量記錄",
        "permlab_readPhoneNumbers": "讀取電話號碼",
        "permlab_readPhoneState": "讀取手機狀態和識別碼",
        "permlab_readSms": "讀取你的簡訊 (SMS 或 MMS)",
        "permlab_readSyncSettings": "讀取同步處理設定",
        "permlab_readSyncStats": "讀取同步處理狀態",
        "permlab_readVisualUserSelect": "讀取使用者在共用儲存空間中選取的圖片和影片檔案",
        "permlab_receiveBootCompleted": "啟動時執行",
        "permlab_receiveMms": "接收簡訊（MMS）",
        "permlab_receiveSms": "接收簡訊（SMS）",
        "permlab_receiveWapPush": "接收簡訊（WAP）",
        "permlab_recordAudio": "錄製音訊",
        "permlab_recordBackgroundAudio": "在背景錄音",
        "permlab_register_call_provider": "註冊新的電信連接",
        "permlab_register_sim_subscription": "註冊新的電信 SIM 卡連接",
        "permlab_removeDrmCertificates": "移除 DRM 憑證",
        "permlab_reorderTasks": "重新排序正在執行的應用程式",
        "permlab_requestDeletePackages": "要求刪除套件",
        "permlab_requestIgnoreBatteryOptimizations": "要求忽略電池效能最佳化",
        "permlab_requestInstallPackages": "要求安裝套件",
        "permlab_requestPasswordComplexity": "要求螢幕鎖定的複雜度",
        "permlab_route_media_output": "轉送媒體輸出",
        "permlab_runInBackground": "在背景執行",
        "permlab_schedule_exact_alarm": "排定精準時間的動作",
        "permlab_sdcardRead": "讀取共用儲存空間中的內容",
        "permlab_sdcardWrite": "修改或刪除你的共用儲存空間中的內容",
        "permlab_sendSms": "發送和查看簡訊",
        "permlab_setAlarm": "設定鬧鐘",
        "permlab_setInputCalibration": "變更輸入裝置校正設定",
        "permlab_setTimeZone": "設定時區",
        "permlab_setWallpaper": "設定桌布",
        "permlab_setWallpaperHints": "調整你的桌布大小",
        "permlab_sim_communication": "發送指令至 SIM 卡",
        "permlab_startForegroundServicesFromBackground": "從背景啟動前景服務",
        "permlab_startReviewPermissionDecisions": "開始檢視權限決定",
        "permlab_startViewAppFeatures": "開始查看應用程式功能",
        "permlab_startViewPermissionUsage": "啟動檢視權限用途",
        "permlab_statusBar": "停用或修改狀態列",
        "permlab_statusBarService": "以狀態列顯示",
        "permlab_subscribedFeedsRead": "讀取訂閱資訊提供",
        "permlab_systemAlertWindow": "此應用程式可顯示在其他應用程式上方",
        "permlab_systemCamera": "允許應用程式或服務存取系統攝影機以拍照和錄影",
        "permlab_transmitIr": "傳送紅外線",
        "permlab_turnScreenOn": "開啟螢幕",
        "permlab_uninstall_shortcut": "解除安裝捷徑",
        "permlab_updatePackagesWithoutUserAction": "無需用戶操作即可更新應用程式",
        "permlab_useBiometric": "使用生物識別硬體",
        "permlab_useDataInBackground": "在背景使用行動數據",
        "permlab_useFaceAuthentication": "使用人臉解鎖硬體",
        "permlab_useFingerprint": "使用指紋硬體",
        "permlab_use_exact_alarm": "排定鬧鐘或事件提醒",
        "permlab_use_sip": "撥打／接聽 SIP 通話",
        "permlab_uwb_ranging": "判斷附近超寬頻裝置之間的相對位置",
        "permlab_vibrate": "控制震動",
        "permlab_videoWrite": "修改你的影片收藏",
        "permlab_wakeLock": "防止手機休眠",
        "permlab_writeCalendar": "在擁有者不知情的情況下新增或修改日曆活動，以及發送電子郵件給邀請對象",
        "permlab_writeCallLog": "寫入通話記錄",
        "permlab_writeContacts": "修改你的聯絡人",
        "permlab_writeGeolocationPermissions": "修改瀏覽器地理位置權限",
        "permlab_writeHistoryBookmarks": "寫入網絡書籤和歷史記錄",
        "permlab_writeSettings": "修改系統設定",
        "permlab_writeSyncSettings": "切換開啟和關閉同步"
    },
    "sidebars": {
        "donate": {
            "bank_transfer_name": "名稱",
            "bitcoin_alt": "透過 Bitcoin 捐助",
            "credit_card": "信用卡",
            "crypto": "加密貨幣",
            "currency": "通貨",
            "flattr_alt": "透過 Flattr 捐助",
            "heading": "捐助",
            "hellotux": "👕 T-shirt 👕 來自",
            "hellotux_alt": "HELLOTUX",
            "hellotux_donation": "每賣出一件衣服，F-Droid 就會收到 3 歐元。",
            "liberapay_alt": "透過 Liberapay 捐助",
            "litecoin_alt": "透過 Litecoin 捐助",
            "more_options": "更多選項",
            "opencollective_alt": "透過 Collective 捐助",
            "paypal": "PayPal",
            "paypal_alt": "透過 PayPal 捐助",
            "powered_by_donations": "F-Droid 的動力來自於您的捐助！",
            "via_bank_transfer": "銀行轉帳"
        },
        "lang": {
            "change": "變更"
        },
        "last_updated": {
            "heading": "最近更新"
        },
        "latest_packages": {
            "heading": "最近新增"
        },
        "news": {
            "heading": "新聞"
        },
        "search": {
            "heading": "搜尋應用程式",
            "noscript": "此功能需要啟動 JavaScript",
            "search": "搜尋"
        }
    }
}
